Real Data Analysis Example 2 • scGTM
…
Cal intercept model

LPS_counts <- LPS_sce %>% dplyr::select(-c("Unnamed: 0", "pseudotime")) %>% t()

pseudotime <- LPS_sce$pseudotime
Poisson_loglik <- apply(LPS_counts, 1, function(gene) {
  fit <- mgcv::gam(gene ~ 1, family = "poisson")
  -logLik(fit)})

Select significant genes

Poisson_new <- Poisson_para %>% dplyr::mutate(nzp = rowMeans(LPS_counts!=0))%>% dplyr::mutate(Poisson_para, nllik = Poisson_loglik) %>% dplyr::mutate(llk_diff = 2*(nllik - negative_log_likelihood)) %>% dplyr::arrange(desc(llk_diff)) %>% dplyr::mutate(pvalue = pchisq(llk_diff, 3, lower.tail = FALSE)) %>% dplyr::mutate(adj_pvalue = p.adjust(pvalue, "BH")) %>% dplyr::filter(adj_pvalue < 0.01)
Poisson_new

## # A tibble: 2,338 × 31
##     ...1 gene_index negative_…¹    mu    k1     k2    t0 phi   sd    alpha beta 
##    <dbl> <chr>            <dbl> <dbl> <dbl>  <dbl> <dbl> <lgl> <lgl> <lgl> <lgl>
##  1   918 GU332589       191392.  8.99 0.210  8.60  0.772 NA    NA    NA    NA   
##  2     1 CCL5           191664. 11.1  7.88   0.912 0.792 NA    NA    NA    NA   
##  3     9 GM11428        217635. 10.7  0.176 36.6   0.623 NA    NA    NA    NA   
##  4     3 LYZ2           211794. 11.1  0.354 16.5   0.575 NA    NA    NA    NA   
##  5  3034 ACTB             1287.  2.29 2.18  21.5   0.579 NA    NA    NA    NA   
##  6   171 CST3            10165.  4.53 1.69  33.3   0.608 NA    NA    NA    NA   
##  7   358 FTH1           221830. 10.4  0.296 13.3   0.750 NA    NA    NA    NA   
##  8    14 CCL17           47407.  4.00 3.13   3.50  0.519 NA    NA    NA    NA   
##  9  1695 AK140265       161029.  8.27 0.152  5.24  0.652 NA    NA    NA    NA   
## 10  2003 FTL1           214900. 10.4  7.83   0.536 0.296 NA    NA    NA    NA   
## # … with 2,328 more rows, 20 more variables: t0_lower <dbl>, t0_upper <dbl>,
## #   t0_std <dbl>, k1_lower <dbl>, k1_upper <dbl>, k1_std <dbl>, k2_lower <dbl>,
## #   k2_upper <dbl>, k2_std <dbl>, mu_lower <dbl>, mu_upper <dbl>, mu_std <dbl>,
## #   Fisher <chr>, Transform <dbl>, Design_para <lgl>, nzp <dbl>, nllik <dbl>,
## #   llk_diff <dbl>, pvalue <dbl>, adj_pvalue <dbl>, and abbreviated variable
## #   name ¹​negative_log_likelihood
…
